{
  "swagger": "2.0",
  "info": {
    "description": "This is API documentation for todolist app",
    "version": "1.0.0",
    "title": "todolist app",
    "contact": {
      "email": "rasyidproject@gmail.com"
    }
  },
  "basePath": "/",
  "tags": [
    {
      "name": "Users",
      "description": "User API collection"
    }
  ],
  "paths": {
    "/api/v1/users/register": {
      "post": {
        "tags": [
          "Users"
        ],
        "summary": "Register new user + new profile to database",
        "description": "This endpoint will register new user,new profile return and access token",
        "operationId": "register",
        "produces": [
          "application/json"
        ],
        "parameters": [
          {
            "in": "body",
            "name": "body",
            "description": "There are name, email and password",
            "required": true,
            "schema": {
              "type": "object",
              "properties": {
                "email": {
                  "type": "string",
                  "format": "email",
                  "example": "barry@starlab.com"
                },
                "name": {
                  "type": "string",
                  "example": "barry allen"
                },
                "password": {
                  "type": "string",
                  "example": "12345"
                }
              }
            }
          }
        ],
        "responses": {
          "201": {
            "description": "successfully register",
            "schema": {
              "type": "object",
              "properties": {
                "status": {
                  "type": "string",
                  "example": "success"
                },
                "data": {
                  "type": "object",
                  "properties": {
                    "id": {
                      "type": "integer",
                      "example": 1
                    },
                    "email": {
                      "type": "string",
                      "format": "email",
                      "example": "barry@starlab.com"
                    },
                    "name": {
                      "type": "string",
                      "example": "barry allen"
                    },
                    "access_token": {
                      "type": "string",
                      "example": "eyJhbGciOiJIUzI1NiIsInR5cCI6IkpXVCJ9.eyJpZCI6MTAsImVtYWlsIjoidGVzdDEwQGdtYWlsLmNvbSIsImlhdCI6MTU5MTA2ODQ0M30.-0fdavuNSuq4nJvsHILviDI8-mMO07tOLPZPUMWv4oI"
                    },
                    "profile": {
                      "type": "object",
                      "properties": {
                        "id": {
                          "type": "string",
                          "example": 1
                        },
                        "id_user": {
                          "type": "string",
                          "example": 1
                        },
                        "createdAt": {
                          "type": "string",
                          "example": "2020-06-02T03:27:23.391Z"
                        },
                        "updatedAt": {
                          "type": "string",
                          "example": "2020-06-02T03:27:23.391Z"
                        },
                        "image_url": {
                          "type": "string",
                          "example": null
                        }
                      }
                    }
                  }
                }
              }
            }
          }
        }
      }
    },
    "/api/v1/users": {
      "post": {
        "tags": [
          "Users"
        ],
        "summary": "Register new user + new profile to database",
        "description": "This endpoint will return access token",
        "operationId": "login",
        "produces": [
          "application/json"
        ],
        "parameters": [
          {
            "in": "body",
            "name": "body",
            "description": "There are email and password",
            "required": true,
            "schema": {
              "type": "object",
              "properties": {
                "email": {
                  "type": "string",
                  "format": "email",
                  "example": "barry@starlab.com"
                },
                "password": {
                  "type": "string",
                  "example": "12345"
                }
              }
            }
          }
        ],
        "responses": {
          "200": {
            "description": "successfully login",
            "schema": {
              "type": "object",
              "properties": {
                "status": {
                  "type": "string",
                  "example": "success"
                },
                "data": {
                  "type": "object",
                  "properties": {
                    "id": {
                      "type": "integer",
                      "example": 1
                    },
                    "email": {
                      "type": "string",
                      "format": "email",
                      "example": "barry@starlab.com"
                    },
                    "name": {
                      "type": "string",
                      "example": "barry allen"
                    },
                    "access_token": {
                      "type": "string",
                      "example": "eyJhbGciOiJIUzI1NiIsInR5cCI6IkpXVCJ9.eyJpZCI6MTAsImVtYWlsIjoidGVzdDEwQGdtYWlsLmNvbSIsImlhdCI6MTU5MTA2ODQ0M30.-0fdavuNSuq4nJvsHILviDI8-mMO07tOLPZPUMWv4oI"
                    }
                  }
                }
              }
            }
          }
        }
      },
      "get": {
        "tags": [
          "Users"
        ],
        "summary": "Get current user data",
        "description": " This endpoint will return current user data",
        "operationId": "getCurrentUserData",
        "produces": [
          "application/json"
        ],
        "security": [
          {
            "Basic": []
          }
        ],
        "responses": {
          "200": {
            "description": "this means token is valid",
            "schema": {
              "type": "object",
              "properties": {
                "status": {
                  "type": "string",
                  "example": "success"
                },
                "data": {
                  "type": "object",
                  "properties": {
                    "id": {
                      "type": "integer",
                      "example": 1
                    },
                    "email": {
                      "type": "string",
                      "format": "email",
                      "example": "barry@starlab.com"
                    },
                    "name": {
                      "type": "string",
                      "example": "barry allen"
                    },
                    "access_token": {
                      "type": "string",
                      "example": "eyJhbGciOiJIUzI1NiIsInR5cCI6IkpXVCJ9.eyJpZCI6MTAsImVtYWlsIjoidGVzdDEwQGdtYWlsLmNvbSIsImlhdCI6MTU5MTA2ODQ0M30.-0fdavuNSuq4nJvsHILviDI8-mMO07tOLPZPUMWv4oI"
                    }
                  }
                }
              }
            }
          }
        }
      }
    }
  },
  "securityDefinitions": {
    "Basic": {
      "type": "apiKey",
      "name": "Authorization",
      "in": "header"
    },
    "api_key": {
      "type": "apiKey",
      "name": "api_key",
      "in": "header"
    }
  }
}